1110,"Выращивание зерновых культур (кроме риса), бобовых культур и семян масличных культур"
1120,Выращивание риса
1130,"Выращивание овощей и бахчевых культур, корнеплодов и клубнеплодов"
1140,Выращивание сахарного тростника
1150,Выращивание табака
1160,Выращивание волокнистых прядильных культур
1190,Выращивание других однолетних культур
1210,Выращивание винограда
1220,Выращивание тропических и субтропических фруктов
1230,Выращивание цитрусовых
1240,Выращивание семечковых и косточковых фруктов
1250,"Выращивание ягод, орехов, других фруктов"
1260,Выращивание масличных плодов
1270,Выращивание культур для производства напитков
1280,"Выращивание специй, ароматических, сильнодействующих наркотических и фармацевтических культур"
1290,Выращивание других многолетних культур
1300,Воспроизведение растений
1410,Разведение крупного рогатого скота молочных пород
1420,Разведение другого крупного рогатого скота и буйволов
1430,Разведение коней и других животных семьи лошадиных
1440,Разведение верблюдов и других животных семьи верблюжьих
1450,Разведение овец и коз
1460,Разведение свиней
1470,Разведение домашней птицы
1490,Разведение других животных
1500,Смешанное сельское хозяйство
1610,Вспомогательная деятельность в растениеводстве
1621,Содержание и уход за сельскохозяйственными животными
1629,"Вспомогательная деятельность в животноводстве (кроме содержания и ухода за сельскохозяйственными животными), н.о.д.г."
1630,Виды сельскохозяйственной деятельности после сбора урожая
1640,Обработка семян для воспроизведения
1700,"Охота, отлов животных и предоставление связанных с ними услуг"
2100,Лесоводство и прочая сельскохозяйственная деятельность
2200,Лесозаготовки
2300,Сбор недревесной продукции лесного хозяйства
2400,Предоставление вспомогательных услуг в лесном хозяйстве
3110,Морское рыболовство
3120,Пресноводное рыболовство
3210,Морское рыбоводство (аквакультура)
3220,Пресноводное рыбоводство (аквакультура)
5101,Добыча каменного угля
5102,Добыча каменного угля открытым способом
5200,Добыча бурого угля
6100,Добыча сырой нефти
6200,Добыча природного газа
7100,Добыча железной руды
7210,Добыча урановой и ториевой руды
7290,Добыча прочих руд цветных металлов
8110,"Добыча декоративного и строительного камня, известняка, гипса, мела и сланца"
8120,"Добыча песка, гравия, глин и каолина"
8910,Добыча минерального сырья для химической промышленности и производства минеральных удобрений
8920,Добыча торфа
8930,Добыча соли
8990,"Добыча других полезных ископаемых и разработка карьеров, н.о.д.г."
9100,Техническая поддержка в области добычи нефти и природного газа
9900,Техническая поддержка в области добычи других полезных ископаемых и разработки карьеров
10110,Переработка и консервирование мяса
10120,Переработка и консервирование мяса домашней птицы
10130,Производство мяса животных и домашней птицы
10200,"Переработка и консервирование рыбы, ракообразных и моллюсков"
10310,Переработка и консервирование картофеля
10320,Производство фруктовых и овощных соков
10390,Другие виды переработки и консервирования фруктов и овощей
10410,Производство масла и животных жиров
10420,Производство маргарина и подобных животных жиров
10511,Производство питьевого молока и сливок
10512,Производство масла и сыра
10519,Производство других молочных продуктов
10520,Производство мороженого
10611,Помол зерна
10612,Производство сухих завтраков и продукции на основе злаковых культур
10620,Производство крахмалов и крахмальных продуктов
10710,"Производство хлеба; производство мучных кондитерских изделий, тортов и пирожных непродолжительного хранения"
10720,"Производство сухарей и сухого печенья; производство мучных кондитерских изделий, тортов и пирожных длительного хранения"
10730,"Производство макаронных изделий, лапши, кус-куса и подобных мучных изделий"
10810,Производство сахара
10821,Производство какао и шоколадных кондитерских изделий
10822,Производство сахарных кондитерских изделий
10831,Производство чая
10832,Производство кофе и его заменителей
10840,Производство пряностей и приправ
10850,Производство готовой пищи и блюд
10860,Производство гомогенизированных и диетических пищевых продуктов
10890,"Производство других пищевых продуктов, н.о.д.г."
10910,"Производство готовых кормов для животных, содержащихся на фермах"
10920,Производство готовых кормов для домашних животных
11010,"Дистилляция, ректификация и смешивание алкогольных напитков"
11020,Производство виноградных вин
11030,Производство сидра и других плодово-ягодных вин
11040,Производство других недистиллированных напитков из сброженных материалов
11050,Производство пива
11060,Производство солода
11070,"Производство безалкогольных напитков; производство минеральных вод и других вод, разлитых в бутылки"
12000,Производство табачных изделий
13100,Подготовка и прядение текстильных изделий
13200,Ткацкое производство
13300,Отделка текстильных изделий
13910,Производство трикотажного полотна
13921,Производство обивочных тканей
13922,"Производство льняной ткани, мешков и пр."
13923,Производство текстиля для дома
13931,"Производство тканых, ворсовых ковров и ковровых покрытий"
13939,Производство других ковров и ковровых покрытий
13940,"Производство канатов, бечевок, шпагата и сеток"
13950,"Производство нетканых текстильных материалов и изделий из них, за исключением одежды"
13960,Производство других текстильных изделий технического и промышленного назначения
13990,"Производство других текстильных изделий, н.о.д.г."
14110,Производство одежды из кожи
14120,Производство рабочей одежды
14131,Производство другой мужской верхней одежды
14132,Производство другой женской верхней одежды
14141,Производство мужского нижнего белья
14142,Производство женского нижнего белья
14190,"Производство другой одежды и аксессуаров, н.о.д.г."
14200,Изготовление изделий из меха
14310,Производство чулочно-носочных изделий
14390,Производство другой трикотажной и вязаной одежды
15110,Дубление шкур и отделка кожи; дубление и окрашивание меха
15120,"Производство дорожных изделий, сумок, шорно-седельных изделий из кожи и других материалов"
15200,Производство обуви
16100,Лесопильное и строгальное производство
16210,Производство фанеры и деревянных плит
16220,Производство деревянного паркета
16230,Производство других деревянных строительных конструкций и столярных изделий
16240,Производство деревянной тары
16290,"Производство других изделий из древесины; изготовление изделий из пробки, соломки и растительных материалов для плетения"
17110,Производство бумажной массы
17120,Производство бумаги и картона
17211,"Производство гофрированной бумаги и картона, бумажной и картонной тары"
17219,Производство другой тары из бумаги и картона
17220,Производство бумажных изделий хозяйственно-бытового и санитарно-гигиенического назначения
17230,Производство бумажных канцелярских изделий
17240,Производство обоев
17290,"Производство других изделий из бумаги и картона, н.о.д.г."
18110,Печатание газет
18121,Производство бумажных этикеток
18129,"Печатание, н.о.д.г."
18130,Изготовление печатных форм и предоставление других полиграфических услуг
18140,Переплетная деятельность и предоставление связанных с ней услуг
18201,Тиражирование звукозаписей
18202,Тиражирование видеозаписей
18203,Тиражирование записей программного обеспечения компьютеров
19100,Производство продукции коксовых печей
19201,Производство продуктов нефтепереработки
19209,Другая переработка нефтепродуктов (за исключением производства продуктов нефтепереработки)
20110,Производство промышленных газов
20120,Производство красителей и пигментов
20130,Производство других основных неорганических химических веществ
20140,Производство других основных органических химических веществ
20150,Производство удобрений и азотных соединений
20160,Производство пластмасс в первичных формах
20170,Производство синтетического каучука в первичных формах
20200,Производство пестицидов и другой агрохимической продукции
20301,"Производство красок, лаков и подобной продукции, печатной краски и мастик"
20302,Производство типографской краски
20411,Производство мыла и моющих средств
20412,Производство средств для чистки и полировки
20420,Производство парфюмерных и косметических средств
20510,Производство взрывчатых веществ
20520,Производство клея
20530,Производство эфирных масел
20590,"Производство другой химической продукции, н.о.д.г."
20600,Производство искусственных и синтетических волокон
21100,Производство основных фармацевтических продуктов
21200,Производство фармацевтических препаратов
22110,"Производство резиновых шин, покрышек и камер; восстановление протектора резиновых шин и покрышек"
22190,Производство других резиновых изделий
22210,"Производство плит, листов, труб и профилей из пластмасс"
22220,Производство тары из пластмасс
22230,Производство строительных изделий из пластмасс
22290,Производство других изделий из пластмасс
23110,Производство листового стекла
23120,Формирование и обработка листового стекла
23130,Производство полого стекла
23140,Производство стекловолокна
23190,"Производство и обработка других стеклянных изделий, в том числе технических"
23200,Производство огнеупорных изделий
23310,Производство керамических плиток и плит
23320,"Производство кирпича, черепицы и других строительных изделий из обожженной глины"
23410,Производство хозяйственных и декоративных керамических изделий
23420,Производство керамических санитарно-технических изделий
23430,Производство керамических электроизоляторов и изоляционной арматуры
23440,Производство других керамических изделий технического назначения
23490,"Производство других керамических изделий, н.о.д.г."
23510,Производство цемента
23520,Производство извести и гипсовых смесей
23610,Изготовление изделий из бетона для строительства
23620,Изготовление изделий из гипса для строительства
23630,Производство готовых к использованию бетонных растворов
23640,Производство строительных смесей
23650,Изготовление изделий из волокнистого цемента
23690,"Производство других изделий из бетона, гипса и цемента"
23700,"Резка, обработка и отделка камня"
23910,Производство абразивных изделий
23990,"Производство неметаллических минеральных изделий, н.о.д.г."
24100,"Производство чугуна, стали и ферросплавов"
24200,"Производство труб, полых профилей и фитингов из стали"
24310,Холодное волочение прутков и профилей
24320,Холодный прокат узкой полосы
24330,Холодная штамповка и гибка
24340,Холодное волочение проволоки
24410,Производство драгоценных металлов
24420,Производство алюминия
24430,"Производство свинца, цинка и олова"
24440,Производство меди
24450,Производство других цветных металлов
24460,Производство ядерных материалов
24510,Литье чугуна
24520,Литье стали
24530,Литье легких цветных металлов
24540,Литье других цветных металлов
25110,Производство строительных металлических конструкций и частей конструкций
25120,Производство металлических дверей и окон
25210,Производство радиаторов и котлов центрального отопления
25290,"Производство других металлических баков, резервуаров и контейнеров"
25300,"Производство паровых котлов, за исключением котлов центрального отопления"
25400,Производство оружия и боеприпасов
25500,"Ковка, прессовка, штамповка, профилирование, порошковая металлургия"
25610,Обработка металлов и нанесение покрытия на металлы
25620,Механическая обработка металлических изделий
25710,Производство столовых приборов
25720,Производство замков и дверных петель
25730,Производство инструментов
25910,Производство стальных бочек и подобных контейнеров
25920,Производство легких металлических упаковок
25930,"Производство изделий из проволоки, цепей и пружин"
25940,Производство крепежных и винторезных изделий
25990,"Производство других готовых металлических изделий, н.о.д.г."
26110,Производство электронных компонентов
26120,Производство смонтированных электронных плат
26200,Производство компьютеров и периферийного оборудования
26301,Производство аппаратуры для проводной телефонной и телеграфной связи
26309,"Производство передающей аппаратуры, за исключением аппаратуры для проводной телефонной и телеграфной связи"
26400,Производство электронной аппаратуры бытового назначения
26511,Производство электронных контрольно-измерительных приборов не для промышленных целей
26512,Производство электронных систем управления производственным процессом
26513,"Производство неэлектронных контрольно-измерительных приборов, не предназначенных для промышленных целей"
26514,Производство неэлектронных систем управления производственным процессом
26520,Производство часов
26600,"Производство радиологического, электромедицинского и электротерапевтического оборудования"
26701,Производство оптических приборов
26702,Производство фотографического и кинематографического оборудования
26800,Производство магнитных и оптических носителей данных
27110,"Производство электродвигателей, генераторов и трансформаторов"
27120,Производство электрораспределительной и контрольной аппаратуры
27200,Производство батарей и аккумуляторов
27310,Производство волоконно-оптических кабелей
27320,Производство других видов электронных и электрических проводов и кабелей
27330,Производство электромонтажных устройств
27400,Производство электрического осветительного оборудования
27510,Производство электрических бытовых приборов
27520,Производство неэлектрических бытовых приборов
27900,Производство другого электрического оборудования
28110,"Производство двигателей и турбин, за исключением авиационных, автотранспортных и мотоциклетных двигателей"
28120,Производство гидравлического и пневматического оборудования
28131,Производство помп
28132,Производство компрессоров
28140,Производство кранов и клапанов
28150,"Производство подшипников, зубчатых передач, элементов механических передач и приводов"
28210,"Производство духовок, печей и печных горелок"
28220,Производство подъемного и погрузочно-разгрузочного оборудования
28230,"Производство офисных машин и оборудования, за исключением компьютеров и периферийного оборудования"
28240,Производство ручных механических инструментов
28250,Производство промышленного холодильного и вентиляционного оборудования
28290,"Производство других машин и оборудования общего назначения, н.о.д.г."
28301,Производство сельскохозяйственных тракторов
28302,"Производство сельскохозяйственных и лесохозяйственных машин, кроме тракторов"
28410,Производство металлообрабатывающих машин
28490,Производство других станков
28910,Производство машин и оборудования для металлургии
28921,Производство машин и оборудования для добывающей промышленности
28922,Производство землеройного оборудования
28923,"Производство дробильно-сортировочного оборудования для бетона, оборудования для ведения дорожных работ"
28930,"Производство машин и оборудования для изготовления пищевых продуктов и напитков, переработки табака"
28940,"Производство машин и оборудования для изготовления текстильных, швейных и кожаных изделий"
28950,Производство машин и оборудования для изготовления бумаги и картона
28960,Производство машин и оборудования для изготовления пластмасс и резины
28990,"Производство других машин и оборудования специального назначения, н.о.д.г."
29100,Производство автотранспортных средств
29201,Производство кузовов для автотранспортных средств (кроме автофургонов)
29202,Производство прицепов и полуприцепов
29203,Производство автофургонов
29310,Производство электрического и электронного оборудования для автотранспортных средств и их двигателей
29320,"Производство других узлов, деталей и принадлежностей для автотранспортных средств"
30110,Строительство судов и плавучих конструкций
30120,Строительство прогулочных и спортивных лодок
30200,Производство железнодорожных локомотивов и подвижного состава
30300,"Производство воздушных и космических летательных аппаратов, сопутствующего оборудования"
30400,Производство военных транспортных средств
30910,Производство мотоциклов
30920,Производство велосипедов и инвалидных колясок
30990,"Производство других транспортных средств и оборудования, н.о.д.г."
31010,Производство мебели для офисов и предприятий торговли
31020,Производство кухонной мебели
31030,Производство матрасов
31090,Производство другой мебели
32110,Чеканка монет
32120,Производство ювелирных и подобных изделий
32130,Производство бижутерии и подобных изделий
32200,Производство музыкальных инструментов
32300,Производство спортивных товаров
32401,"Производство игр и игрушек, профессиональных и игровых"
32409,"Производство других игр и игрушек, н.о.д.г."
32500,Производство медицинских и стоматологических инструментов и материалов
32910,Производство метел и щеток
32990,"Производство другой продукции, н.о.д.г."
33110,Ремонт готовых металлических изделий
33120,Ремонт машин и оборудования
33130,Ремонт электронного и оптического оборудования
33140,Ремонт электрического оборудования
33150,Ремонт и техническое обслуживание судов и лодок
33160,Ремонт и техническое обслуживание воздушных и космических летательных аппаратов
33170,"Ремонт и техническое обслуживание других транспортных средств, н.о.д.г."
33190,Ремонт другого оборудования
33200,Установка и монтаж промышленных машин и оборудования
35110,Производство электроэнергии
35120,Передача электроэнергии
35130,Распределение электроэнергии
35140,Торговля электроэнергией
35210,Производство газа
35220,Распределение газообразного топлива через трубопроводы
35230,Торговля газом через трубопроводы
35300,Поставка пара и кондиционированного воздуха
36000,"Сбор, очистка и поставка воды"
37000,Канализационные системы
38110,Сбор безопасных отходов
38120,Сбор опасных отходов
38210,Обработка и удаление безопасных отходов
38220,Обработка и удаление опасных отходов
38310,Демонтаж (разборка) обломков
38320,Восстановление отсортированных отходов
39000,Другая деятельность по обращению с отходами
41100,Разработка строительных проектов
41201,Строительство нежилых зданий
41202,Строительство жилых зданий
42110,Строительство дорог и автострад
42120,Строительство железных дорог и метрополитена
42130,Строительство мостов и тоннелей
42210,Строительство трубопроводов
42220,Строительство сооружений электроснабжения и телекоммуникаций
42910,Строительство водных сооружений
42990,"Строительство других сооружений, н.о.д.г."
43110,Снос
43120,Подготовительные работы на строительной площадке
43130,Разведывательное бурение
43210,Электромонтажные работы
43220,"Монтаж водопроводных сетей, систем отопления и кондиционирования"
43290,Другие строительно-монтажные работы
43310,Штукатурные работы
43320,Установка столярных изделий
43330,Покрытие пола и облицовка стен
43341,Малярные работы
43342,Остекление
43390,Другие работы по завершению строительства
43910,Кровельные работы
43991,Установка строительных лесов
43999,"Другие специализированные строительные работы, н.о.д.г."
45111,Торговля автомобилями и легковыми автотранспортными средствами
45112,Торговля подержанными автомобилями и легковыми автотранспортными средствами
45190,Торговля другими автотранспортными средствами
45200,Техническое обслуживание и ремонт автотранспортных средств
45310,Оптовая торговля деталями и принадлежностями для автотранспортных средств
45320,Розничная торговля деталями и принадлежностями для автотранспортных средств
45400,"Торговля мотоциклами, деталями и принадлежностями к ним, техническое обслуживание и ремонт мотоциклов"
46110,"Деятельность посредников в торговле сельскохозяйственным сырьем, живыми животными, текстильным сырьем и полуфабрикатами"
46120,"Деятельность посредников в торговле топливом, рудами, металлами и промышленными химическими веществами"
46130,Деятельность посредников в торговле древесиной и и строительными материалами
46140,"Деятельность посредников в торговле машинами, промышленным оборудованием, судами и самолетами"
46150,"Деятельность посредников в торговле мебелью, хозяйственными товарами, железными и другими металлическими изделиями"
46160,"Деятельность посредников в торговле текстильными изделиями, одеждой, мехом, обувью и кожаными изделиями"
46170,"Деятельность посредников в торговле продуктами питания, напитками и табачными изделиями"
46180,"Деятельность посредников, специализирующихся в торговле другими товарами"
46190,Деятельность посредников в торговле товарами широкого ассортимента
46210,"Оптовая торговля зерном, необработанным табаком, семенами и кормами для животных"
46220,Оптовая торговля цветами и растениями
46230,Оптовая торговля живыми животными
46240,"Оптовая торговля кожсырьем, шкурами и кожей"
46310,Оптовая торговля фруктами и овощами
46320,Оптовая торговля мясом и мясными продуктами
46330,"Оптовая торговля молочными продуктами, яйцами, пищевыми маслами и жирами"
46341,"Оптовая торговля фруктовыми и овощными соками, минеральной водой и безалкогольными напитками"
46342,"Оптовая торговля вином, пивом и другими алкогольными напитками"
46350,Оптовая торговля табачными изделиями
46360,"Оптовая торговля сахаром, шоколадом и кондитерскими изделиями"
46370,"Оптовая торговля кофе, чаем, какао и пряностями"
46380,"Оптовая торговля другими продуктами питания, в том числе рыбой, ракообразными и моллюсками"
46390,"Неспециализированная оптовая торговля продуктами питания, напитками и табачными изделиями"
46410,Оптовая торговля текстильными товарами
46420,Оптовая торговля одеждой и обувью
46431,"Оптовая торговля аудиокассетами, звукозаписями, компакт-дисками и видеокассетами, и оборудованием для их воспроизведения"
46439,"Оптовая торговля радиоприемниками, телевизионной аппаратурой и электрическими бытовыми приборами (кроме звукозаписей, кассет, компакт-дисков и видеокассет, и оборудования для их воспроизведения)"
46440,"Оптовая торговля фарфором, стеклянной посудой и средствами для чистки"
46450,Оптовая торговля парфюмерными и косметическими товарами
46460,Оптовая торговля фармацевтическими товарами
46470,"Оптовая торговля мебелью, коврами и осветительными приборами"
46480,Оптовая торговля часами и ювелирными изделиями
46491,Оптовая торговля музыкальными инструментами
46499,"Оптовая торговля другими товарами хозяйственного назначения (кроме музыкальных инструментов), н.о.д.г."
46510,"Оптовая торговля компьютерами, периферийным оборудованием и программным обеспечением"
46520,"Оптовая торговля электронным и телекоммуникационным оборудованием, деталями к нему"
46610,Оптовая торговля сельскохозяйственными машинами и оборудованием
46620,Оптовая торговля станками
46630,Оптовая торговля машинами и оборудованием для добывающей промышленности и строительства
46640,"Оптовая торговля машинами и оборудованием для текстильного, швейного и трикотажного производства"
46650,Оптовая торговля офисной мебелью
46660,Оптовая торговля другими офисными машинами и оборудованием
46690,Оптовая торговля другими машинами и оборудованием
46711,Оптовая торговля нефтью и нефтепродуктами
46719,Оптовая торговля топливом и сопутствующими продуктами
46720,Оптовая торговля металлами и металлическими рудами
46730,"Оптовая торговля древесиной, строительными материалами и санитарно-техническим оборудованием"
46740,"Оптовая торговля железными изделиями, водопроводным и отопительным оборудованием и принадлежностями к нему"
46750,Оптовая торговля химическими продуктами
46760,Оптовая торговля другими промежуточными продуктами
46770,Оптовая торговля отходами и ломом
46900,Неспециализированная оптовая торговля
47110,"Розничная торговля в неспециализированных магазинах преимущественно продуктами питания, напитками и табачными изделиями"
47190,Другие виды розничной торговли в неспециализированных магазинах
47210,Розничная торговля фруктами и овощами в специализированных магазинах
47220,Розничная торговля мясом и мясными продуктами в специализированных магазинах
47230,"Розничная торговля рыбой, ракообразными и моллюсками в специализированных магазинах"
47240,"Розничная торговля хлебобулочными изделиями, мучными и сахарными кондитерскими изделиями в специализированных магазинах"
47250,Розничная торговля напитками в специализированных магазинах
47260,Розничная торговля табачными изделиями в специализированных магазинах
47290,Розничная торговля другими продуктами питания в специализированных магазинах
47300,Розничная торговля горючим в специализированных магазинах
47410,"Розничная торговля компьютерами, периферийным оборудованием и программным обеспечением в специализированных магазинах"
47421,Розничная торговля мобильными телефонами
47429,"Розничная торговля телекоммуникационным оборудованием, за исключением мобильных телефонов"
47430,Розничная торговля аудио- и видеоаппаратурой в специализированных магазинах
47510,Розничная торговля текстильными товарами в специализированных магазинах
47520,"Розничная торговля железными изделиями, красками и стеклянными изделиями в специализированных магазинах"
47530,"Розничная торговля коврами, ковровыми изделиями, покрытием для стен и пола в специализированных магазинах"
47540,Розничная торговля бытовыми электротоварами в специализированных магазинах
47591,Розничная торговля музыкальными инструментами и нотами
47599,"Розничная торговля мебелью, осветительными приборами и подобными товарами (кроме музыкальных инструментов и нот) в специализированных магазинах"
47610,Розничная торговля книгами в специализированных магазинах
47620,Розничная торговля газетами и канцелярскими товарами в специализированных магазинах
47630,Розничная торговля аудио- и видеозаписями в специализированных магазинах
47640,"Розничная торговля спортивным инвентарем, рыболовными снастями, товарами для кемпинга, лодками и велосипедами"
47650,Розничная торговля играми и игрушками в специализированных магазинах
47710,Розничная торговля одеждой в специализированных магазинах
47721,Розничная торговля обувью в специализированных магазинах
47722,Розничная торговля кожаными изделиями в специализированных магазинах
47730,Розничная торговля фармацевтическими товарами в специализированных магазинах
47741,Розничная торговля слуховыми аппаратами
47749,"Розничная торговля медицинскими и ортопедическими товарами в специализированных магазинах (за исключением слуховых аппаратов), н.о.д.г."
47750,Розничная торговля косметическими товарами и туалетными принадлежностями в специализированных магазинах
47760,"Розничная торговля цветами, растениями, семенами, удобрениями, домашними животными и кормами для них в специализированных магазинах"
47770,Розничная торговля часами и ювелирными изделиями в специализированных магазинах
47781,Розничная торговля произведениями искусства в художественных галереях
47782,Розничная торговля оптикой
47789,Другая розничная торговля новыми товарами в специализированных магазинах (кроме торговли в художественных галереях и оптики)
47791,Розничная торговля антиквариатом и антикварными книгами в магазинах
47799,Розничная торговля другими бывшими в употреблении товарами в магазинах (кроме антиквариата )
47810,"Розничная торговля с лотков и на рынках пищевыми продуктами, напитками и табачными изделиями"
47820,"Розничная торговля с лотков и на рынках текстильными изделиями, одеждой и обувью"
47890,Розничная торговля с лотков и на рынках другими товарами
47910,"Розничная торговля, осуществляемая фирмами почтовых заказов или через сеть Интернет"
47990,"Другие виды розничной торговли вне магазинов, лотков или рынков"
49100,Пассажирский железнодорожный транспорт междугороднего сообщения
49200,Грузовой железнодорожный транспорт
49311,Железнодорожные пассажирские перевозки метрополитеном и другим подобным видом транспорта городского и пригородного сообщения
49319,Другие виды пассажирского наземного транспорта городского и пригородного сообщения (кроме метрополитена и подобных)
49320,Предоставление услуг такси
49390,Другой пассажирский наземный транспорт
49410,Грузовой автомобильный транспорт
49420,Предоставление услуг по перевозке вещей (переезду)
49500,Трубопроводный транспорт
50100,Пассажирский морской транспорт
50200,Грузовой морской транспорт
50300,Пассажирский речной транспорт
50400,Грузовой речной транспорт
51101,Регулярные пассажирские перевозки авиационным транспортом
51102,Нерегулярные пассажирские перевозки авиационным транспортом
51210,Грузовой авиационный транспорт
51220,Космический транспорт
52101,Складское хозяйство для обслуживания водного транспорта
52102,Складское хозяйство для обслуживания воздушного транспорта
52103,Складское хозяйство для обслуживания наземного транспорта
52211,Грузовые железнодорожные терминалы
52212,Пункты обслуживания пассажиров на железнодорожных станциях
52213,Пункты обслуживания пассажиров на автобусных станциях и вокзалах
52219,"Другое вспомогательное обслуживание наземного транспорта, н.о.д.г."
52220,Вспомогательное обслуживание водного транспорта
52230,Вспомогательное обслуживание авиационного транспорта
52241,Обработка грузов для перевозки водным транспортом
52242,Обработка грузов для перевозки воздушным транспортом
52243,Обработка грузов для перевозки наземным транспортом
52290,Другая вспомогательная деятельность в сфере транспорта
53100,Деятельность национальной почты
53201,Деятельность лицензированных перевозчиков
53202,Деятельность нелицензированных перевозчиков
55100,Деятельность гостиниц и подобных средств временного размещения
55201,Деятельность санаториев и баз отдыха
55202,Деятельность молодежных турбаз или гостиниц
55209,Деятельность средств размещения на период отпуска и другого временного проживания
55300,Предоставление мест кемпингами и стоянками для жилых автофургонов и прицепов
55900,Деятельность других средств временного размещения
56101,Деятельность лицензированных ресторанов
56102,Деятельность нелицензированных ресторанов и кафе
56103,Деятельность ресторанов быстрого питания и предоставление услуг мобильного питания
56210,Поставка готовых блюд для мероприятий
56290,Поставка других готовых блюд
56301,Деятельность лицензированных клубов
56302,Деятельность закусочных и баров
58110,Издание книг
58120,Издание справочников и каталогов
58130,Издание газет
58141,Издание научных журналов
58142,"Издание журналов общего и коммерческого характера, периодических изданий"
58190,Другие виды издательской деятельности
58210,Издание компьютерных игр
58290,Издание другого программного обеспечения
59111,Производство кинофильмов
59112,Производство видеофильмов
59113,Производство телевизионных программ
59120,"Компоновка кино- и видеофильмов, телевизионных программ"
59131,Распространение кинофильмов
59132,Распространение видеофильмов
59133,Распространение телевизионных программ
59140,Демонстрация кинофильмов
59200,Звукозапись и публикация музыкальных произведений
60100,Деятельность в сфере радиовещания
60200,Деятельность в сфере телевизионного вещания
61100,Деятельность в сфере проводной электросвязи
61200,Деятельность в сфере беспроводной электросвязи
61300,Деятельность в сфере спутниковой электросвязи
61900,Другая деятельность в сфере электросвязи
62011,Разработка интерактивного программного обеспечения для отдыха и развлечений
62012,Разработка коммерческого и некоммерческого программного обеспечения
62020,Консультирование по вопросам информатизации
62030,Деятельность по управлению компьютерным оборудованием
62090,Другая деятельность в сфере информационных технологий
63110,"Обработка данных, размещение информации на веб-узлах и связанная с ними деятельность"
63120,Веб-порталы
63910,Деятельность информационных агентств
63990,"Предоставление других информационных услуг, н.о.д.г."
64110,Деятельность центрального банка
64191,Деятельность банков
64192,Деятельность строительных компаний
64201,Деятельность сельскохозяйственных холдинговых компаний
64202,Деятельность производственных холдинговых компаний
64203,Деятельность строительных холдинговых компаний
64204,Деятельность дистрибьюторских холдинговых компаний
64205,"Деятельность холдинговых компаний, предоставляющих финансовые услуги"
64209,"Деятельность других холдинговых компаний, н.о.д.г."
64301,Деятельность инвестиционных фондов
64302,Деятельность общих инвестиционных траст-фондов
64303,Деятельность компаний венчурного капитала и капитального развития
64304,Деятельность открытых инвестиционных компаний
64305,Деятельность паевых фондов инвестиций в недвижимость
64306,Деятельность инвестиционных трастов недвижимости
64910,Финансовый лизинг
64921,Кредитование недепозитными финансовыми учреждениями и другими компаниями по предоставлению потребительских кредитов
64922,Деятельность ипотечных финансовых компаний
64929,"Другие виды кредитования, н.о.д.г."
64991,Сделки по купле-продаже ценных бумаг за собственный счет
64992,Факторинг
64999,"Финансовое посредничество, н.о.д.г."
65110,Страхование жизни
65120,"Другие виды страхования, кроме страхования жизни"
65201,Перестрахование жизни
65202,"Другие виды перестрахования, кроме перестрахования жизни"
65300,Пенсионное обеспечение
66110,Управление финансовыми рынками
66120,Посредничество по договорам по ценным бумагам или товарам
66190,"Другая вспомогательная деятельность в сфере финансового посредничества, н.о.д.г."
66210,Оценка рисков и нанесенного ущерба
66220,Деятельность страховых агентов и брокеров
66290,Другая вспомогательная деятельность в сфере страхования и пенсионного обеспечения
66300,Управление фондами
68100,Покупка и продажа собственного недвижимого имущества
68201,Предоставление в аренду и эксплуатацию имущества ЖСК
68202,Предоставление в аренду и эксплуатацию конференц-залов и выставочных центров
68209,Другое предоставление в аренду и эксплуатацию собственного или арендованного недвижимого имущества
68310,Агентства недвижимости
68320,Управление недвижимым имуществом за вознаграждение или на основании контракта
69101,"Деятельность адвокатов, имеющих право выступать в суде"
69102,Деятельность солиситора
69109,"Деятельность патентных поверенных и агентов по авторским правам другая юридическая деятельность, н.о.д.г."
69201,Деятельность в сфере бухгалтерского учета и аудита
69202,Деятельность в сфере бухгалтерского учета
69203,Консультирование по вопросам налогообложения
70100,Деятельность главных управлений (хед-офисов)
70210,Деятельность в сфере связей с общественностью
70221,Финансовый менеджмент
70229,"Консультирование по вопросам управления, кроме финансового менеджмента"
71111,Деятельность в сфере архитектуры
71112,Деятельность в сфере градостроительства и архитектуры
71121,Деятельность в сфере технического проектирования для промышленных технологий и производства
71122,"Деятельность в сфере инжиниринга, предоставление услуг технического консультирования"
71129,Другая деятельность в сфере инжиниринга
71200,Технические испытания и исследования
72110,Исследование и экспериментальные разработки в сфере биотехнологий
72190,Исследование и экспериментальные разработки в сфере других естественных и технических наук
72200,Исследование и экспериментальные разработки в сфере общественных и гуманитарных наук
73110,Рекламные агентства
73120,Посредничество в размещении рекламы в средствах массовой информации
73200,Исследование конъюнктуры рынка и выявление общественного мнения
74100,Специализированная деятельность по дизайну
74201,Портретная фотография
74202,Другие виды фотосъемки
74203,Обработка фото- и киноплёнки
74209,"Деятельность в сфере фотографии, н.о.д.г."
74300,Предоставление услуг устного и письменного перевода
74901,Консультирование по вопросам охраны окружающей среды
74902,Деятельность по составлению ведомостей и расчету объемов работ
74909,"Другая профессиональная, научная и техническая деятельность, н.о.д.г."
74990,Деятельность некоммерческих компаний
75000,Ветеринарная деятельность
77110,Предоставление в аренду автомобилей и легковых автотранспортных средств
77120,Предоставление в аренду грузовых автомобилей
77210,Прокат товаров для спорта и отдыха
77220,Прокат видеозаписей и дисков
77291,Предоставление в аренду развлекательного оборудования
77299,Предоставление в аренду других бытовых изделий и предметов личного потребления
77310,Предоставление в аренду сельскохозяйственных машин и оборудования
77320,Предоставление в аренду строительных машин и оборудования
77330,"Предоставление в аренду офисных машин и оборудования, в том числе компьютеров"
77341,Предоставление в аренду водных транспортных средств для пассажирских перевозок
77342,Предоставление в аренду водных транспортных средств для грузоперевозок
77351,Предоставление в аренду воздушных транспортных средств для пассажирских перевозок
77352,Предоставление в аренду воздушных транспортных средств для грузоперевозок
77390,"Предоставление в аренду других машин, оборудования и товаров, н.о.д.г."
77400,"Лизинг интеллектуальной собственности и подобных продуктов, кроме произведений, защищенных авторскими правами"
78101,"Проведение кастингов для кино, телевидения, театра"
78109,Другая деятельность агентств по трудоустройству
78200,Деятельность агентств по временному трудоустройству
78300,Другая деятельность по обеспечению иуправлению трудовыми ресурсами
79110,Деятельность туристических агентств
79120,Деятельность туристических операторов
79901,Деятельность туристических гидов
79909,"Предоставление других услуг бронирования, н.о.д.г."
80100,Деятельность частных охранных служб
80200,Обслуживание систем безопасности
80300,Проведение расследований
81100,Комплексное обслуживание объектов
81210,Общая уборка домов
81221,Мойка окон
81222,Специализированная уборка
81223,Услуги по чистке котлов и дымоходов
81229,Другие услуги по уборке строительных и промышленных площадок
81291,Деятельность по дезинфекции и уничтожению вредителей
81299,Другие виды деятельности по уборке
81300,Предоставление ландшафтных услуг
82110,Предоставление комбинированных офисных административных услуг
82190,"Фотокопирование, подготовка документов и другая специализированная вспомогательная офисная деятельность"
82200,Деятельность телефонных центров
82301,Деятельность организаторов выставок и ярмарок
82302,Деятельность организаторов конференций
82911,Деятельность коллекторских агентств
82912,Деятельность кредитных бюро
82920,Упаковка
82990,"Предоставление других вспомогательных коммерческих услуг, н.о.д.г."
84110,Государственное управление общего характера
84120,"Регулирование в сферах здравоохранения, культуры, образования и других социальных сферах, кроме обязательного социального страхования"
84130,Регулирование и содействие эффективному ведению экономической деятельности
84210,Международная деятельность
84220,Деятельность в сфере обороны
84230,Деятельность в сфере юстиции и правосудия
84240,Деятельность в сфере охраны общественного порядка и безопасности
84250,Деятельность пожарных служб
84300,Деятельность в сфере обязательного социального страхования
85100,Дошкольное образование
85200,Начальное образование
85310,Общее среднее образование
85320,Профессионально-техническое образование
85410,Профессионально-техническое образование на уровне высшего профессионально-технического учебного заведения
85421,Базовое высшее образование (степень бакалавра)
85422,Последипломное образование
85510,Образование в сфере спорта и отдыха
85520,Образование в сфере культуры
85530,Деятельность школ подготовки водителей транспортных средств
85590,"Другие виды образования, н.о.д.г."
85600,Вспомогательная деятельность в сфере образования
86101,Деятельность лечебных заведений
86102,Деятельность домов инвалидов с медицинским обслуживанием
86210,Общая медицинская практика
86220,Специализированная медицинская практика
86230,Стоматологическая практика
86900,Другая деятельность в сфере здравоохранения
87100,Деятельность по уходу за больными с обеспечением проживания
87200,"Предоставление услуг по уходу с обеспечением проживания для умственно отсталых лиц, психически больных и больных наркоманией"
87300,Предоставление услуг по уходу с обеспечением проживания для пожилых людей и инвалидов
87900,"Предоставление других услуг по уходу с обеспечением проживания, н.о.д.г."
88100,Предоставление социальной помощи без обеспечения проживания для пожилых людей и инвалидов
88910,Дневной уход за детьми
88990,"Предоставление другой социальной помощи без обеспечения проживания, н.о.д.г."
90010,Театральная и концертная деятельность
90020,Вспомогательная деятельность для театральных и концертных мероприятий
90030,Художественное творчество
90040,Функционирование театральных и концертных залов
91011,Функционирование библиотек
91012,Функционирование архивов
91020,Функционирование музеев
91030,"Деятельность по охране и использованию памятников истории, зданий и других памятников культуры"
91040,"Функционирование ботанических садов, зоопарков и природных заповедников"
92000,Организация азартных игр
93110,Функционирование спортивных сооружений
93120,Деятельность спортивных клубов
93130,Деятельность фитнесс-центров
93191,Деятельность владельцев скаковых лошадей
93199,Другая деятельность в сфере спорта
93210,Функционирование аттракционов и тематических парков
93290,"Организация других видов отдыха и развлечений, н.о.д.г."
94110,Деятельность организаций промышленников и предпринимателей
94120,Деятельность профессиональных общественных организаций
94200,Деятельность профессиональных союзов
94910,Деятельность религиозных организаций
94920,Деятельность политических организаций
94990,"Деятельность других общественных организаций, н.о.д.г."
95110,Ремонт компьютеров и периферийного оборудования
95120,Ремонт оборудования связи
95210,Ремонт электронной аппаратуры бытового назначения
95220,"Ремонт бытовых приборов, домашнего и садового оборудования"
95230,Ремонт обуви и кожаных изделий
95240,Ремонт мебели и домашней утвари
95250,Ремонт часов и ювелирных изделий
95290,"Ремонт других бытовых изделий и предметов личного потребления, н.о.д.г."
96010,Стирка и химическая чистка текстильных и меховых изделий
96020,Предоставление услуг парикмахерскими и салонами красоты
96030,Организация захоронений и предоставление смежных услуг
96040,Деятельность по обеспечению физического комфорта
96090,"Предоставление других индивидуальных услуг, н.о.д.г."
97000,Деятельность домашних хозяйств как работодателей для домашней прислуги
98000,Управление имуществом резидентов
98100,Деятельность домашних хозяйств как производителей товаров для собственного потребления
98200,Деятельность домашних хозяйств как производителей услуг для собственного потребления
99000,Деятельность экстерриториальных организаций и органов
99999,"Деятельность зарегистрированной, но не функционирующей компании"